…
## Explore data
colonies by year and months


```r
colony %>% 
  count(year, months)
```

```
## # A tibble: 26 × 3
##     year months               n
##    <dbl> <chr>            <int>
##  1  2015 April-June          47
##  2  2015 January-March       47
##  3  2015 July-September      47
##  4  2015 October-December    47
##  5  2016 April-June          47
##  6  2016 January-March       47
##  7  2016 July-September      47
##  8  2016 October-December    47
##  9  2017 April-June          47
## 10  2017 January-March       47
## # … with 16 more rows
```

the data is grouped by trimester


```r
stressor %>% 
  count(year, months)
```

```
## # A tibble: 26 × 3
##     year months               n
##    <dbl> <chr>            <int>
##  1  2015 April-June         282
##  2  2015 January-March      282
##  3  2015 July-September     282
##  4  2015 October-December   282
##  5  2016 April-June         282
##  6  2016 January-March      282
##  7  2016 July-September     282
##  8  2016 October-December   282
##  9  2017 April-June         282
## 10  2017 January-March      282
## # … with 16 more rows
```
…
```r
stressor %>% 
  count(state, sort = TRUE)
```

```
## # A tibble: 47 × 2
##    state           n
##    <chr>       <int>
##  1 Alabama       156
##  2 Arizona       156
##  3 Arkansas      156
##  4 California    156
##  5 Colorado      156
##  6 Connecticut   156
##  7 Florida       156
##  8 Georgia       156
##  9 Hawaii        156
## 10 Idaho         156
## # … with 37 more rows
```

There is a United States total. Only some states have individual counts
others are counted as Other States
If we add the total of the states it should equal United States total 


```r
colony %>% 
  filter(year == 2015) %>% 
  filter(state != "United States") %>% 
  count(state, wt = colony_n, sort = TRUE) 
```

```
## # A tibble: 46 × 2
##    state              n
##    <chr>          <dbl>
##  1 California   3960000
##  2 Florida       899000
##  3 North Dakota  868000
##  4 Texas         697000
##  5 South Dakota  639000
##  6 Georgia       436000
##  7 Idaho         344000
##  8 Minnesota     336000
##  9 Washington    328000
## 10 Oregon        327000
## # … with 36 more rows
```
…
